<svg width="16" height="16" viewBox="0 0 16 16" fill="none" xmlns="http://www.w3.org/2000/svg">
<path d="M11.968 11.0978C12.9477 9.92308 13.5385 8.41415 13.5385 6.76923C13.5385 3.03692 10.5015 0 6.76923 0C3.03692 0 0 3.03692 0 6.76923C0 10.5015 3.03692 13.5385 6.76923 13.5385C8.41415 13.5385 9.92308 12.9471 11.0978 11.968L14.9495 15.8197C15.0695 15.9397 15.2271 16 15.3846 16C15.5422 16 15.6997 15.9397 15.8197 15.8197C16.0603 15.5791 16.0603 15.1902 15.8197 14.9495L11.968 11.0978ZM1.23077 6.76923C1.23077 3.71569 3.71508 1.23077 6.76923 1.23077C9.82339 1.23077 12.3077 3.71569 12.3077 6.76923C12.3077 8.21108 11.7495 9.52123 10.8437 10.5077C10.7705 10.5378 10.7015 10.5822 10.6418 10.6418C10.5822 10.7015 10.5378 10.7705 10.5077 10.8437C9.52123 11.7495 8.21108 12.3077 6.76923 12.3077C3.71508 12.3077 1.23077 9.82277 1.23077 6.76923Z" fill="#999999"/>
</svg>
